BTC/USDT historical data — btcusdt • quantrecipes
…
close

volume

turnover

    Examples

# import library
library(quantrecipes)

# print the data
btcusdt
#> # A tibble: 26,191 x 7
#>    datetime             open  high   low close volume turnover
#>    <dttm>              <dbl> <dbl> <dbl> <dbl>  <dbl>    <dbl>
#>  1 2019-05-01 00:00:00 5323. 5323. 5319. 5321   0.872    4639.
#>  2 2019-05-01 00:05:00 5321. 5324. 5318. 5324.  0.112     599.
#>  3 2019-05-01 00:10:00 5326. 5327. 5324. 5324.  0.375    1996.
#>  4 2019-05-01 00:15:00 5322. 5336. 5321. 5336.  1.20     6405.
#>  5 2019-05-01 00:20:00 5334  5353. 5334. 5344.  3.15    16836.
#>  6 2019-05-01 00:25:00 5343. 5347. 5339. 5342.  1.57     8369.
#>  7 2019-05-01 00:30:00 5344. 5350. 5343. 5350.  0.978    5233.
#>  8 2019-05-01 00:35:00 5349. 5350. 5338. 5339.  1.39     7439.
#>  9 2019-05-01 00:40:00 5340. 5340. 5333  5334.  0.399    2128.
#> 10 2019-05-01 00:45:00 5336. 5336. 5331. 5331.  0.165     881.
#> # … with 26,181 more rows
…
