Extract ZigZag features — step_zigzag • quantrecipes
…
    Examples

# import libs
library(quantrecipes)

# basic usage
rec <- recipe(. ~ ., data = btcusdt) %>%
  step_zigzag(close) %>%
  step_naomit(all_predictors()) %>%
  prep()

# get preprocessed data
juice(rec)
#> # A tibble: 26,156 x 8
#>    datetime             open  high   low close volume turnover zigzag_value
#>    <dttm>              <dbl> <dbl> <dbl> <dbl>  <dbl>    <dbl>        <dbl>
#>  1 2019-05-01 00:00:00 5323. 5323. 5319. 5321   0.872    4639.        5321 
#>  2 2019-05-01 00:05:00 5321. 5324. 5318. 5324.  0.112     599.        5322.
#>  3 2019-05-01 00:10:00 5326. 5327. 5324. 5324.  0.375    1996.        5322.
#>  4 2019-05-01 00:15:00 5322. 5336. 5321. 5336.  1.20     6405.        5323.
#>  5 2019-05-01 00:20:00 5334  5353. 5334. 5344.  3.15    16836.        5324.
#>  6 2019-05-01 00:25:00 5343. 5347. 5339. 5342.  1.57     8369.        5325.
#>  7 2019-05-01 00:30:00 5344. 5350. 5343. 5350.  0.978    5233.        5325.
#>  8 2019-05-01 00:35:00 5349. 5350. 5338. 5339.  1.39     7439.        5326.
#>  9 2019-05-01 00:40:00 5340. 5340. 5333  5334.  0.399    2128.        5327.
#> 10 2019-05-01 00:45:00 5336. 5336. 5331. 5331.  0.165     881.        5328.
#> # … with 26,146 more rows
…
