Calculate cumulative returns based on specified actions — step_cumret • quantrecipes
…
    Examples

# import libs
library(quantrecipes)

# basic usage
rec <- recipe(. ~ ., data = actions) %>%
  step_cumret(benchmark, portfolio, prices = "close") %>%
  step_naomit(all_predictors()) %>%
  prep()

# get preprocessed data
juice(rec)
#> # A tibble: 863 x 6
#>    datetime            close benchmark portfolio cumret_benchmark
#>    <dttm>              <dbl> <fct>     <fct>                <dbl>
#>  1 2019-07-27 23:55:00 9486. buy       buy               -0.00405
#>  2 2019-07-28 00:00:00 9457. hold      hold              -0.0104 
#>  3 2019-07-28 00:05:00 9396. hold      hold              -0.00879
#>  4 2019-07-28 00:10:00 9412. hold      hold              -0.00559
#>  5 2019-07-28 00:15:00 9442. hold      hold              -0.00726
#>  6 2019-07-28 00:20:00 9426. hold      hold              -0.00533
#>  7 2019-07-28 00:25:00 9445. hold      hold              -0.00482
#>  8 2019-07-28 00:30:00 9450. hold      hold              -0.00458
#>  9 2019-07-28 00:35:00 9452. hold      hold              -0.00732
#> 10 2019-07-28 00:40:00 9426. hold      hold              -0.00715
#> # … with 853 more rows, and 1 more variable: cumret_portfolio <dbl>
…
